<?xml version="1.0" encoding="UTF-8" standalone="no"?>
<!-- Created with Inkscape (http://www.inkscape.org/) -->

<svg
   xmlns:dc="http://purl.org/dc/elements/1.1/"
   xmlns:cc="http://creativecommons.org/ns#"
   xmlns:rdf="http://www.w3.org/1999/02/22-rdf-syntax-ns#"
   xmlns:svg="http://www.w3.org/2000/svg"
   xmlns="http://www.w3.org/2000/svg"
   xmlns:xlink="http://www.w3.org/1999/xlink"
   xmlns:sodipodi="http://sodipodi.sourceforge.net/DTD/sodipodi-0.dtd"
   xmlns:inkscape="http://www.inkscape.org/namespaces/inkscape"
   width="64"
   height="64"
   id="svg5453"
   version="1.1"
   inkscape:version="0.91 r13725"
   sodipodi:docname="folder-documents.svg">
  <defs
     id="defs5455">
    <linearGradient
       id="linearGradient4233">
      <stop
         style="stop-color:#494e54;stop-opacity:1;"
         offset="0"
         id="stop4235" />
      <stop
         style="stop-color:#4e545b;stop-opacity:0;"
         offset="1"
         id="stop4237" />
    </linearGradient>
    <linearGradient
       id="linearGradient4232">
      <stop
         id="stop4234"
         offset="0"
         style="stop-color:#555b5f;stop-opacity:1;" />
      <stop
         id="stop4236"
         offset="1"
         style="stop-color:#6c747c;stop-opacity:1;" />
    </linearGradient>
    <linearGradient
       id="linearGradient4172">
      <stop
         style="stop-color:#696e7f;stop-opacity:1;"
         offset="0"
         id="stop4174" />
      <stop
         style="stop-color:#a8adb8;stop-opacity:1;"
         offset="1"
         id="stop4176" />
    </linearGradient>
    <linearGradient
       inkscape:collect="always"
       xlink:href="#linearGradient4172"
       id="linearGradient4178"
       x1="414.57144"
       y1="541.79797"
       x2="414.57144"
       y2="499.798"
       gradientUnits="userSpaceOnUse"
       gradientTransform="matrix(1,0,0,0.99967455,0,0.17645)" />
    <linearGradient
       inkscape:collect="always"
       xlink:href="#linearGradient4232"
       id="linearGradient4182"
       gradientUnits="userSpaceOnUse"
       x1="414.57144"
       y1="523.79797"
       x2="414.57144"
       y2="505.798"
       gradientTransform="matrix(1,0,0,0.99954446,0,-15.75672)" />
    <linearGradient
       inkscape:collect="always"
       xlink:href="#linearGradient4233"
       id="linearGradient4239"
       x1="384.57144"
       y1="477.798"
       x2="404.57144"
       y2="497.798"
       gradientUnits="userSpaceOnUse"
       gradientTransform="translate(0,1.2e-4)" />
    <filter
       style="color-interpolation-filters:sRGB;"
       inkscape:label="Colorize"
       id="filter3507">
      <feComposite
         in2="SourceGraphic"
         operator="arithmetic"
         k1="0.2"
         k2="1.2"
         result="composite1"
         id="feComposite3509" />
      <feColorMatrix
         in="composite1"
         values="0"
         type="saturate"
         result="colormatrix1"
         id="feColorMatrix3511" />
      <feFlood
         flood-opacity="1"
         flood-color="rgb(50,179,93)"
         result="flood1"
         id="feFlood3513" />
      <feBlend
         in="flood1"
         in2="colormatrix1"
         mode="multiply"
         result="blend1"
         id="feBlend3515" />
      <feBlend
         in2="blend1"
         mode="screen"
         result="blend2"
         id="feBlend3517" />
      <feColorMatrix
         in="blend2"
         values="1"
         type="saturate"
         result="colormatrix2"
         id="feColorMatrix3519" />
      <feComposite
         in="colormatrix2"
         in2="SourceGraphic"
         operator="in"
         k2="1"
         result="composite2"
         id="feComposite3521" />
    </filter>
    <filter
       style="color-interpolation-filters:sRGB;"
       inkscape:label="Colorize"
       id="filter3523">
      <feComposite
         in2="SourceGraphic"
         operator="arithmetic"
         k1="0.2"
         k2="1.2"
         result="composite1"
         id="feComposite3525" />
      <feColorMatrix
         in="composite1"
         values="0"
         type="saturate"
         result="colormatrix1"
         id="feColorMatrix3527" />
      <feFlood
         flood-opacity="1"
         flood-color="rgb(50,179,93)"
         result="flood1"
         id="feFlood3529" />
      <feBlend
         in="flood1"
         in2="colormatrix1"
         mode="multiply"
         result="blend1"
         id="feBlend3531" />
      <feBlend
         in2="blend1"
         mode="screen"
         result="blend2"
         id="feBlend3533" />
      <feColorMatrix
         in="blend2"
         values="1"
         type="saturate"
         result="colormatrix2"
         id="feColorMatrix3535" />
      <feComposite
         in="colormatrix2"
         in2="SourceGraphic"
         operator="in"
         k2="1"
         result="composite2"
         id="feComposite3537" />
    </filter>
    <filter
       style="color-interpolation-filters:sRGB;"
       inkscape:label="Colorize"
       id="filter3539">
      <feComposite
         in2="SourceGraphic"
         operator="arithmetic"
         k1="0.2"
         k2="1.2"
         result="composite1"
         id="feComposite3541" />
      <feColorMatrix
         in="composite1"
         values="0"
         type="saturate"
         result="colormatrix1"
         id="feColorMatrix3543" />
      <feFlood
         flood-opacity="1"
         flood-color="rgb(50,179,93)"
         result="flood1"
         id="feFlood3545" />
      <feBlend
         in="flood1"
         in2="colormatrix1"
         mode="multiply"
         result="blend1"
         id="feBlend3547" />
      <feBlend
         in2="blend1"
         mode="screen"
         result="blend2"
         id="feBlend3549" />
      <feColorMatrix
         in="blend2"
         values="1"
         type="saturate"
         result="colormatrix2"
         id="feColorMatrix3551" />
      <feComposite
         in="colormatrix2"
         in2="SourceGraphic"
         operator="in"
         k2="1"
         result="composite2"
         id="feComposite3553" />
    </filter>
    <filter
       style="color-interpolation-filters:sRGB;"
       inkscape:label="Colorize"
       id="filter3555">
      <feComposite
         in2="SourceGraphic"
         operator="arithmetic"
         k1="0.2"
         k2="1.2"
         result="composite1"
         id="feComposite3557" />
      <feColorMatrix
         in="composite1"
         values="0"
         type="saturate"
         result="colormatrix1"
         id="feColorMatrix3559" />
      <feFlood
         flood-opacity="1"
         flood-color="rgb(50,179,93)"
         result="flood1"
         id="feFlood3561" />
      <feBlend
         in="flood1"
         in2="colormatrix1"
         mode="multiply"
         result="blend1"
         id="feBlend3563" />
      <feBlend
         in2="blend1"
         mode="screen"
         result="blend2"
         id="feBlend3565" />
      <feColorMatrix
         in="blend2"
         values="1"
         type="saturate"
         result="colormatrix2"
         id="feColorMatrix3567" />
      <feComposite
         in="colormatrix2"
         in2="SourceGraphic"
         operator="in"
         k2="1"
         result="composite2"
         id="feComposite3569" />
    </filter>
    <filter
       style="color-interpolation-filters:sRGB;"
       inkscape:label="Colorize"
       id="filter3571">
      <feComposite
         in2="SourceGraphic"
         operator="arithmetic"
         k1="0.2"
         k2="1.2"
         result="composite1"
         id="feComposite3573" />
      <feColorMatrix
         in="composite1"
         values="0"
         type="saturate"
         result="colormatrix1"
         id="feColorMatrix3575" />
      <feFlood
         flood-opacity="1"
         flood-color="rgb(50,179,93)"
         result="flood1"
         id="feFlood3577" />
      <feBlend
         in="flood1"
         in2="colormatrix1"
         mode="multiply"
         result="blend1"
         id="feBlend3579" />
      <feBlend
         in2="blend1"
         mode="screen"
         result="blend2"
         id="feBlend3581" />
      <feColorMatrix
         in="blend2"
         values="1"
         type="saturate"
         result="colormatrix2"
         id="feColorMatrix3583" />
      <feComposite
         in="colormatrix2"
         in2="SourceGraphic"
         operator="in"
         k2="1"
         result="composite2"
         id="feComposite3585" />
    </filter>
    <filter
       style="color-interpolation-filters:sRGB;"
       inkscape:label="Colorize"
       id="filter3587">
      <feComposite
         in2="SourceGraphic"
         operator="arithmetic"
         k1="0.2"
         k2="1.2"
         result="composite1"
         id="feComposite3589" />
      <feColorMatrix
         in="composite1"
         values="0"
         type="saturate"
         result="colormatrix1"
         id="feColorMatrix3591" />
      <feFlood
         flood-opacity="1"
         flood-color="rgb(50,179,93)"
         result="flood1"
         id="feFlood3593" />
      <feBlend
         in="flood1"
         in2="colormatrix1"
         mode="multiply"
         result="blend1"
         id="feBlend3595" />
      <feBlend
         in2="blend1"
         mode="screen"
         result="blend2"
         id="feBlend3597" />
      <feColorMatrix
         in="blend2"
         values="1"
         type="saturate"
         result="colormatrix2"
         id="feColorMatrix3599" />
      <feComposite
         in="colormatrix2"
         in2="SourceGraphic"
         operator="in"
         k2="1"
         result="composite2"
         id="feComposite3601" />
    </filter>
    <filter
       style="color-interpolation-filters:sRGB;"
       inkscape:label="Colorize"
       id="filter3603">
      <feComposite
         in2="SourceGraphic"
         operator="arithmetic"
         k1="0.2"
         k2="1.2"
         result="composite1"
         id="feComposite3605" />
      <feColorMatrix
         in="composite1"
         values="0"
         type="saturate"
         result="colormatrix1"
         id="feColorMatrix3607" />
      <feFlood
         flood-opacity="1"
         flood-color="rgb(50,179,93)"
         result="flood1"
         id="feFlood3609" />
      <feBlend
         in="flood1"
         in2="colormatrix1"
         mode="multiply"
         result="blend1"
         id="feBlend3611" />
      <feBlend
         in2="blend1"
         mode="screen"
         result="blend2"
         id="feBlend3613" />
      <feColorMatrix
         in="blend2"
         values="1"
         type="saturate"
         result="colormatrix2"
         id="feColorMatrix3615" />
      <feComposite
         in="colormatrix2"
         in2="SourceGraphic"
         operator="in"
         k2="1"
         result="composite2"
         id="feComposite3617" />
    </filter>
    <filter
       style="color-interpolation-filters:sRGB;"
       inkscape:label="Colorize"
       id="filter3619">
      <feComposite
         in2="SourceGraphic"
         operator="arithmetic"
         k1="0.2"
         k2="1.2"
         result="composite1"
         id="feComposite3621" />
      <feColorMatrix
         in="composite1"
         values="0"
         type="saturate"
         result="colormatrix1"
         id="feColorMatrix3623" />
      <feFlood
         flood-opacity="1"
         flood-color="rgb(50,179,93)"
         result="flood1"
         id="feFlood3625" />
      <feBlend
         in="flood1"
         in2="colormatrix1"
         mode="multiply"
         result="blend1"
         id="feBlend3627" />
      <feBlend
         in2="blend1"
         mode="screen"
         result="blend2"
         id="feBlend3629" />
      <feColorMatrix
         in="blend2"
         values="1"
         type="saturate"
         result="colormatrix2"
         id="feColorMatrix3631" />
      <feComposite
         in="colormatrix2"
         in2="SourceGraphic"
         operator="in"
         k2="1"
         result="composite2"
         id="feComposite3633" />
    </filter>
    <filter
       style="color-interpolation-filters:sRGB;"
       inkscape:label="Colorize"
       id="filter3635">
      <feComposite
         in2="SourceGraphic"
         operator="arithmetic"
         k1="0.2"
         k2="1.2"
         result="composite1"
         id="feComposite3637" />
      <feColorMatrix
         in="composite1"
         values="0"
         type="saturate"
         result="colormatrix1"
         id="feColorMatrix3639" />
      <feFlood
         flood-opacity="1"
         flood-color="rgb(50,179,93)"
         result="flood1"
         id="feFlood3641" />
      <feBlend
         in="flood1"
         in2="colormatrix1"
         mode="multiply"
         result="blend1"
         id="feBlend3643" />
      <feBlend
         in2="blend1"
         mode="screen"
         result="blend2"
         id="feBlend3645" />
      <feColorMatrix
         in="blend2"
         values="1"
         type="saturate"
         result="colormatrix2"
         id="feColorMatrix3647" />
      <feComposite
         in="colormatrix2"
         in2="SourceGraphic"
         operator="in"
         k2="1"
         result="composite2"
         id="feComposite3649" />
    </filter>
  </defs>
  <sodipodi:namedview
     id="base"
     pagecolor="#ffffff"
     bordercolor="#666666"
     borderopacity="1.0"
     inkscape:pageopacity="0"
     inkscape:pageshadow="2"
     inkscape:zoom="11.313708"
     inkscape:cx="7.3166363"
     inkscape:cy="29.998972"
     inkscape:document-units="px"
     inkscape:current-layer="layer1"
     showgrid="true"
     fit-margin-top="0"
     fit-margin-left="0"
     fit-margin-right="0"
     fit-margin-bottom="0"
     inkscape:window-width="1920"
     inkscape:window-height="1000"
     inkscape:window-x="0"
     inkscape:window-y="29"
     inkscape:window-maximized="1"
     inkscape:showpageshadow="false"
     borderlayer="true"
     showguides="true">
    <sodipodi:guide
       position="6.0000117,57.999996"
       orientation="51.999969,0"
       id="guide4097" />
    <sodipodi:guide
       position="6.0000117,6.0000264"
       orientation="0,52"
       id="guide4099" />
    <sodipodi:guide
       position="58.000012,6.0000264"
       orientation="-51.999969,0"
       id="guide4101" />
    <sodipodi:guide
       position="58.000012,57.999996"
       orientation="0,-52"
       id="guide4103" />
    <sodipodi:guide
       position="3.0000117,60.999996"
       orientation="57.999969,0"
       id="guide4105" />
    <sodipodi:guide
       position="3.0000117,3.0000264"
       orientation="0,58"
       id="guide4107" />
    <sodipodi:guide
       position="61.000012,3.0000264"
       orientation="-57.999969,0"
       id="guide4109" />
    <sodipodi:guide
       position="61.000012,60.999996"
       orientation="0,-58"
       id="guide4111" />
    <inkscape:grid
       type="xygrid"
       id="grid4115" />
  </sodipodi:namedview>
  <metadata
     id="metadata5458">
    <rdf:RDF>
      <cc:Work
         rdf:about="">
        <dc:format>image/svg+xml</dc:format>
        <dc:type
           rdf:resource="http://purl.org/dc/dcmitype/StillImage" />
        <dc:title />
      </cc:Work>
    </rdf:RDF>
  </metadata>
  <g
     inkscape:label="Capa 1"
     inkscape:groupmode="layer"
     id="layer1"
     transform="translate(-384.57143,-483.798)">
    <path
       style="fill:url(#linearGradient4182);fill-opacity:1;stroke:none;filter:url(#filter3507)"
       d="m 388.57143,489.79812 0,5 0,22 c 0,0.55373 0.446,1 1,1 l 54,0 c 0.55399,0 1,-0.44627 1,-1 l 0,-21.99023 c 0,-0.003 -0.002,-0.006 -0.002,-0.01 l 0.002,0 0,-1 -28,0 -3,-4 -25,0 z"
       id="rect4180"
       inkscape:connector-curvature="0" />
    <path
       style="fill:url(#linearGradient4239);fill-opacity:1;fill-rule:evenodd;stroke:none;stroke-width:1px;stroke-linecap:butt;stroke-linejoin:miter;stroke-opacity:1;filter:url(#filter3523)"
       d="m 388.57143,489.79812 26,26 1,1 29,-16.74316 0,-6.25684 -28,0 -3,-4 z"
       id="path4230"
       inkscape:connector-curvature="0" />
    <path
       style="fill:url(#linearGradient4178);fill-opacity:1;stroke:none;filter:url(#filter3539)"
       d="m 406.57143,499.79812 -3,4 -16,0 0,1 0.002,0 c -5e-5,0.004 -0.002,0.008 -0.002,0.0117 l 0,35.98828 0,1 1,0 56,0 1,0 0,-1 0,-35.98828 0,-0.0117 0,-5 -39,0 z"
       id="rect4113"
       inkscape:connector-curvature="0" />
    <path
       style="fill:#7e878e;fill-opacity:1;fill-rule:evenodd;stroke:none;stroke-width:1px;stroke-linecap:butt;stroke-linejoin:miter;stroke-opacity:1;filter:url(#filter3555)"
       d="m 444.57143,493.79812 0,1 -29,0 -2,-5 3,4 z"
       id="path4222"
       inkscape:connector-curvature="0" />
    <path
       style="fill:#ffffff;fill-opacity:0.23529412;fill-rule:evenodd;stroke:none;stroke-width:1px;stroke-linecap:butt;stroke-linejoin:miter;stroke-opacity:1;filter:url(#filter3571)"
       d="m 387.57144,503.79812 0,1 16.99999,0 2,-5 -3,4 z"
       id="path4224"
       inkscape:connector-curvature="0" />
    <path
       style="fill:#444b51;fill-opacity:1;fill-rule:evenodd;stroke:none;stroke-width:1px;stroke-linecap:butt;stroke-linejoin:miter;stroke-opacity:1;filter:url(#filter3587)"
       d="m 388.57143,502.79812 0,1 15,0 3,-4 -5,3 z"
       id="path4228"
       inkscape:connector-curvature="0" />
    <path
       inkscape:connector-curvature="0"
       style="fill:#63697a;fill-opacity:1;stroke:none;filter:url(#filter3603)"
       d="m 387.57143,540.7981 0,1 1,0 56,0 1,0 0,-1 -1,0 -56,0 -1,0 z"
       id="path4151-2" />
    <path
       style="opacity:0.3;color:#000000;fill:#ffffff;fill-opacity:1;fill-rule:nonzero;stroke:none;stroke-width:1.70000005;marker:none;visibility:visible;display:inline;overflow:visible;enable-background:accumulate;filter:url(#filter3619)"
       d="m 409.24273,508.848 c -0.91536,0 -1.65228,0.73692 -1.65228,1.65227 l 0,23.13183 c 0,0.91536 0.73692,1.65228 1.65228,1.65228 l 16.52273,0 c 0.91536,0 1.65227,-0.73692 1.65227,-1.65228 l 0,-16.52273 c 0,-0.91536 -7.346,-8.26137 -8.26136,-8.26137 z m 0.82613,1.65227 9.08751,0 0,6.6091 6.60909,0 0,15.6966 c 0,0.45767 -0.36846,0.82613 -0.82613,0.82613 l -14.87047,0 c -0.45767,0 -0.82613,-0.36846 -0.82613,-0.82613 l 0,-21.47956 c 0,-0.45768 0.36846,-0.82614 0.82613,-0.82614 z"
       id="rect21401-5-9-7"
       inkscape:connector-curvature="0"
       sodipodi:nodetypes="sssssssssscccssssss" />
    <path
       style="color:#000000;fill:#2a3338;fill-opacity:0.8509804;fill-rule:nonzero;stroke:none;stroke-width:1.70000005;marker:none;visibility:visible;display:inline;overflow:visible;enable-background:accumulate;filter:url(#filter3635)"
       d="m 409.24273,508.29711 c -0.91536,0 -1.65228,0.73692 -1.65228,1.65228 l 0,23.13183 c 0,0.91535 0.73692,1.65227 1.65228,1.65227 l 16.52273,0 c 0.91536,0 1.65227,-0.73692 1.65227,-1.65227 l 0,-16.52274 c 0,-0.91536 -7.346,-8.26137 -8.26136,-8.26137 z m 0.82613,1.65228 9.08751,0 0,6.60909 6.60909,0 0,15.6966 c 0,0.45768 -0.36846,0.82614 -0.82613,0.82614 l -14.87047,0 c -0.45767,0 -0.82613,-0.36846 -0.82613,-0.82614 l 0,-21.47956 c 0,-0.45767 0.36846,-0.82613 0.82613,-0.82613 z"
       id="rect21401-5-9"
       inkscape:connector-curvature="0"
       sodipodi:nodetypes="sssssssssscccssssss" />
  </g>
</svg>
