<?xml version="1.0" encoding="UTF-8" standalone="no"?>
<!-- Created with Inkscape (http://www.inkscape.org/) -->

<svg
   xmlns:dc="http://purl.org/dc/elements/1.1/"
   xmlns:cc="http://creativecommons.org/ns#"
   xmlns:rdf="http://www.w3.org/1999/02/22-rdf-syntax-ns#"
   xmlns:svg="http://www.w3.org/2000/svg"
   xmlns="http://www.w3.org/2000/svg"
   xmlns:xlink="http://www.w3.org/1999/xlink"
   xmlns:sodipodi="http://sodipodi.sourceforge.net/DTD/sodipodi-0.dtd"
   xmlns:inkscape="http://www.inkscape.org/namespaces/inkscape"
   width="64"
   height="64"
   id="svg5453"
   version="1.1"
   inkscape:version="0.91 r13725"
   sodipodi:docname="user-home.svg">
  <defs
     id="defs5455">
    <linearGradient
       id="linearGradient4233">
      <stop
         style="stop-color:#494e54;stop-opacity:1;"
         offset="0"
         id="stop4235" />
      <stop
         style="stop-color:#4e545b;stop-opacity:0;"
         offset="1"
         id="stop4237" />
    </linearGradient>
    <linearGradient
       id="linearGradient4232">
      <stop
         id="stop4234"
         offset="0"
         style="stop-color:#555b5f;stop-opacity:1;" />
      <stop
         id="stop4236"
         offset="1"
         style="stop-color:#6c747c;stop-opacity:1;" />
    </linearGradient>
    <linearGradient
       id="linearGradient4172">
      <stop
         style="stop-color:#696e7f;stop-opacity:1;"
         offset="0"
         id="stop4174" />
      <stop
         style="stop-color:#a8adb8;stop-opacity:1;"
         offset="1"
         id="stop4176" />
    </linearGradient>
    <linearGradient
       inkscape:collect="always"
       xlink:href="#linearGradient4172"
       id="linearGradient4178"
       x1="414.57144"
       y1="541.79797"
       x2="414.57144"
       y2="499.798"
       gradientUnits="userSpaceOnUse"
       gradientTransform="matrix(1,0,0,0.99967455,0,0.17645)" />
    <linearGradient
       inkscape:collect="always"
       xlink:href="#linearGradient4232"
       id="linearGradient4182"
       gradientUnits="userSpaceOnUse"
       x1="414.57144"
       y1="523.79797"
       x2="414.57144"
       y2="505.798"
       gradientTransform="matrix(1,0,0,0.99954446,0,-15.75672)" />
    <linearGradient
       inkscape:collect="always"
       xlink:href="#linearGradient4233"
       id="linearGradient4239"
       x1="384.57144"
       y1="477.798"
       x2="404.57144"
       y2="497.798"
       gradientUnits="userSpaceOnUse"
       gradientTransform="translate(0,1.2e-4)" />
    <filter
       style="color-interpolation-filters:sRGB;"
       inkscape:label="Colorize"
       id="filter7983">
      <feComposite
         in2="SourceGraphic"
         operator="arithmetic"
         k1="0.2"
         k2="1.2"
         result="composite1"
         id="feComposite7985" />
      <feColorMatrix
         in="composite1"
         values="0"
         type="saturate"
         result="colormatrix1"
         id="feColorMatrix7987" />
      <feFlood
         flood-opacity="1"
         flood-color="rgb(50,179,93)"
         result="flood1"
         id="feFlood7989" />
      <feBlend
         in="flood1"
         in2="colormatrix1"
         mode="multiply"
         result="blend1"
         id="feBlend7991" />
      <feBlend
         in2="blend1"
         mode="screen"
         result="blend2"
         id="feBlend7993" />
      <feColorMatrix
         in="blend2"
         values="1"
         type="saturate"
         result="colormatrix2"
         id="feColorMatrix7995" />
      <feComposite
         in="colormatrix2"
         in2="SourceGraphic"
         operator="in"
         k2="1"
         result="composite2"
         id="feComposite7997" />
    </filter>
    <filter
       style="color-interpolation-filters:sRGB;"
       inkscape:label="Colorize"
       id="filter7999">
      <feComposite
         in2="SourceGraphic"
         operator="arithmetic"
         k1="0.2"
         k2="1.2"
         result="composite1"
         id="feComposite8001" />
      <feColorMatrix
         in="composite1"
         values="0"
         type="saturate"
         result="colormatrix1"
         id="feColorMatrix8003" />
      <feFlood
         flood-opacity="1"
         flood-color="rgb(50,179,93)"
         result="flood1"
         id="feFlood8005" />
      <feBlend
         in="flood1"
         in2="colormatrix1"
         mode="multiply"
         result="blend1"
         id="feBlend8007" />
      <feBlend
         in2="blend1"
         mode="screen"
         result="blend2"
         id="feBlend8009" />
      <feColorMatrix
         in="blend2"
         values="1"
         type="saturate"
         result="colormatrix2"
         id="feColorMatrix8011" />
      <feComposite
         in="colormatrix2"
         in2="SourceGraphic"
         operator="in"
         k2="1"
         result="composite2"
         id="feComposite8013" />
    </filter>
    <filter
       style="color-interpolation-filters:sRGB;"
       inkscape:label="Colorize"
       id="filter8015">
      <feComposite
         in2="SourceGraphic"
         operator="arithmetic"
         k1="0.2"
         k2="1.2"
         result="composite1"
         id="feComposite8017" />
      <feColorMatrix
         in="composite1"
         values="0"
         type="saturate"
         result="colormatrix1"
         id="feColorMatrix8019" />
      <feFlood
         flood-opacity="1"
         flood-color="rgb(50,179,93)"
         result="flood1"
         id="feFlood8021" />
      <feBlend
         in="flood1"
         in2="colormatrix1"
         mode="multiply"
         result="blend1"
         id="feBlend8023" />
      <feBlend
         in2="blend1"
         mode="screen"
         result="blend2"
         id="feBlend8025" />
      <feColorMatrix
         in="blend2"
         values="1"
         type="saturate"
         result="colormatrix2"
         id="feColorMatrix8027" />
      <feComposite
         in="colormatrix2"
         in2="SourceGraphic"
         operator="in"
         k2="1"
         result="composite2"
         id="feComposite8029" />
    </filter>
    <filter
       style="color-interpolation-filters:sRGB;"
       inkscape:label="Colorize"
       id="filter8031">
      <feComposite
         in2="SourceGraphic"
         operator="arithmetic"
         k1="0.2"
         k2="1.2"
         result="composite1"
         id="feComposite8033" />
      <feColorMatrix
         in="composite1"
         values="0"
         type="saturate"
         result="colormatrix1"
         id="feColorMatrix8035" />
      <feFlood
         flood-opacity="1"
         flood-color="rgb(50,179,93)"
         result="flood1"
         id="feFlood8037" />
      <feBlend
         in="flood1"
         in2="colormatrix1"
         mode="multiply"
         result="blend1"
         id="feBlend8039" />
      <feBlend
         in2="blend1"
         mode="screen"
         result="blend2"
         id="feBlend8041" />
      <feColorMatrix
         in="blend2"
         values="1"
         type="saturate"
         result="colormatrix2"
         id="feColorMatrix8043" />
      <feComposite
         in="colormatrix2"
         in2="SourceGraphic"
         operator="in"
         k2="1"
         result="composite2"
         id="feComposite8045" />
    </filter>
    <filter
       style="color-interpolation-filters:sRGB;"
       inkscape:label="Colorize"
       id="filter8047">
      <feComposite
         in2="SourceGraphic"
         operator="arithmetic"
         k1="0.2"
         k2="1.2"
         result="composite1"
         id="feComposite8049" />
      <feColorMatrix
         in="composite1"
         values="0"
         type="saturate"
         result="colormatrix1"
         id="feColorMatrix8051" />
      <feFlood
         flood-opacity="1"
         flood-color="rgb(50,179,93)"
         result="flood1"
         id="feFlood8053" />
      <feBlend
         in="flood1"
         in2="colormatrix1"
         mode="multiply"
         result="blend1"
         id="feBlend8055" />
      <feBlend
         in2="blend1"
         mode="screen"
         result="blend2"
         id="feBlend8057" />
      <feColorMatrix
         in="blend2"
         values="1"
         type="saturate"
         result="colormatrix2"
         id="feColorMatrix8059" />
      <feComposite
         in="colormatrix2"
         in2="SourceGraphic"
         operator="in"
         k2="1"
         result="composite2"
         id="feComposite8061" />
    </filter>
    <filter
       style="color-interpolation-filters:sRGB;"
       inkscape:label="Colorize"
       id="filter8063">
      <feComposite
         in2="SourceGraphic"
         operator="arithmetic"
         k1="0.2"
         k2="1.2"
         result="composite1"
         id="feComposite8065" />
      <feColorMatrix
         in="composite1"
         values="0"
         type="saturate"
         result="colormatrix1"
         id="feColorMatrix8067" />
      <feFlood
         flood-opacity="1"
         flood-color="rgb(50,179,93)"
         result="flood1"
         id="feFlood8069" />
      <feBlend
         in="flood1"
         in2="colormatrix1"
         mode="multiply"
         result="blend1"
         id="feBlend8071" />
      <feBlend
         in2="blend1"
         mode="screen"
         result="blend2"
         id="feBlend8073" />
      <feColorMatrix
         in="blend2"
         values="1"
         type="saturate"
         result="colormatrix2"
         id="feColorMatrix8075" />
      <feComposite
         in="colormatrix2"
         in2="SourceGraphic"
         operator="in"
         k2="1"
         result="composite2"
         id="feComposite8077" />
    </filter>
    <filter
       style="color-interpolation-filters:sRGB;"
       inkscape:label="Colorize"
       id="filter8079">
      <feComposite
         in2="SourceGraphic"
         operator="arithmetic"
         k1="0.2"
         k2="1.2"
         result="composite1"
         id="feComposite8081" />
      <feColorMatrix
         in="composite1"
         values="0"
         type="saturate"
         result="colormatrix1"
         id="feColorMatrix8083" />
      <feFlood
         flood-opacity="1"
         flood-color="rgb(50,179,93)"
         result="flood1"
         id="feFlood8085" />
      <feBlend
         in="flood1"
         in2="colormatrix1"
         mode="multiply"
         result="blend1"
         id="feBlend8087" />
      <feBlend
         in2="blend1"
         mode="screen"
         result="blend2"
         id="feBlend8089" />
      <feColorMatrix
         in="blend2"
         values="1"
         type="saturate"
         result="colormatrix2"
         id="feColorMatrix8091" />
      <feComposite
         in="colormatrix2"
         in2="SourceGraphic"
         operator="in"
         k2="1"
         result="composite2"
         id="feComposite8093" />
    </filter>
    <filter
       style="color-interpolation-filters:sRGB;"
       inkscape:label="Colorize"
       id="filter8095">
      <feComposite
         in2="SourceGraphic"
         operator="arithmetic"
         k1="0.2"
         k2="1.2"
         result="composite1"
         id="feComposite8097" />
      <feColorMatrix
         in="composite1"
         values="0"
         type="saturate"
         result="colormatrix1"
         id="feColorMatrix8099" />
      <feFlood
         flood-opacity="1"
         flood-color="rgb(50,179,93)"
         result="flood1"
         id="feFlood8101" />
      <feBlend
         in="flood1"
         in2="colormatrix1"
         mode="multiply"
         result="blend1"
         id="feBlend8103" />
      <feBlend
         in2="blend1"
         mode="screen"
         result="blend2"
         id="feBlend8105" />
      <feColorMatrix
         in="blend2"
         values="1"
         type="saturate"
         result="colormatrix2"
         id="feColorMatrix8107" />
      <feComposite
         in="colormatrix2"
         in2="SourceGraphic"
         operator="in"
         k2="1"
         result="composite2"
         id="feComposite8109" />
    </filter>
    <filter
       style="color-interpolation-filters:sRGB;"
       inkscape:label="Colorize"
       id="filter8111">
      <feComposite
         in2="SourceGraphic"
         operator="arithmetic"
         k1="0.2"
         k2="1.2"
         result="composite1"
         id="feComposite8113" />
      <feColorMatrix
         in="composite1"
         values="0"
         type="saturate"
         result="colormatrix1"
         id="feColorMatrix8115" />
      <feFlood
         flood-opacity="1"
         flood-color="rgb(50,179,93)"
         result="flood1"
         id="feFlood8117" />
      <feBlend
         in="flood1"
         in2="colormatrix1"
         mode="multiply"
         result="blend1"
         id="feBlend8119" />
      <feBlend
         in2="blend1"
         mode="screen"
         result="blend2"
         id="feBlend8121" />
      <feColorMatrix
         in="blend2"
         values="1"
         type="saturate"
         result="colormatrix2"
         id="feColorMatrix8123" />
      <feComposite
         in="colormatrix2"
         in2="SourceGraphic"
         operator="in"
         k2="1"
         result="composite2"
         id="feComposite8125" />
    </filter>
  </defs>
  <sodipodi:namedview
     id="base"
     pagecolor="#ffffff"
     bordercolor="#666666"
     borderopacity="1.0"
     inkscape:pageopacity="0"
     inkscape:pageshadow="2"
     inkscape:zoom="7.9999996"
     inkscape:cx="-0.54617016"
     inkscape:cy="18.445645"
     inkscape:document-units="px"
     inkscape:current-layer="layer1"
     showgrid="true"
     fit-margin-top="0"
     fit-margin-left="0"
     fit-margin-right="0"
     fit-margin-bottom="0"
     inkscape:window-width="1920"
     inkscape:window-height="1000"
     inkscape:window-x="0"
     inkscape:window-y="29"
     inkscape:window-maximized="1"
     inkscape:showpageshadow="false"
     borderlayer="true"
     showguides="true">
    <sodipodi:guide
       position="6.0000117,57.999996"
       orientation="51.999969,0"
       id="guide4097" />
    <sodipodi:guide
       position="6.0000117,6.0000264"
       orientation="0,52"
       id="guide4099" />
    <sodipodi:guide
       position="58.000012,6.0000264"
       orientation="-51.999969,0"
       id="guide4101" />
    <sodipodi:guide
       position="58.000012,57.999996"
       orientation="0,-52"
       id="guide4103" />
    <sodipodi:guide
       position="3.0000117,60.999996"
       orientation="57.999969,0"
       id="guide4105" />
    <sodipodi:guide
       position="3.0000117,3.0000264"
       orientation="0,58"
       id="guide4107" />
    <sodipodi:guide
       position="61.000012,3.0000264"
       orientation="-57.999969,0"
       id="guide4109" />
    <sodipodi:guide
       position="61.000012,60.999996"
       orientation="0,-58"
       id="guide4111" />
    <inkscape:grid
       type="xygrid"
       id="grid4115" />
  </sodipodi:namedview>
  <metadata
     id="metadata5458">
    <rdf:RDF>
      <cc:Work
         rdf:about="">
        <dc:format>image/svg+xml</dc:format>
        <dc:type
           rdf:resource="http://purl.org/dc/dcmitype/StillImage" />
        <dc:title />
      </cc:Work>
    </rdf:RDF>
  </metadata>
  <g
     inkscape:label="Capa 1"
     inkscape:groupmode="layer"
     id="layer1"
     transform="translate(-384.57143,-483.798)">
    <path
       style="fill:url(#linearGradient4182);fill-opacity:1;stroke:none;filter:url(#filter7983)"
       d="m 388.57143,489.79812 0,5 0,22 c 0,0.55373 0.446,1 1,1 l 54,0 c 0.55399,0 1,-0.44627 1,-1 l 0,-21.99023 c 0,-0.003 -0.002,-0.006 -0.002,-0.01 l 0.002,0 0,-1 -28,0 -3,-4 -25,0 z"
       id="rect4180"
       inkscape:connector-curvature="0" />
    <path
       style="fill:url(#linearGradient4239);fill-opacity:1;fill-rule:evenodd;stroke:none;stroke-width:1px;stroke-linecap:butt;stroke-linejoin:miter;stroke-opacity:1;filter:url(#filter7999)"
       d="m 388.57143,489.79812 26,26 1,1 29,-16.74316 0,-6.25684 -28,0 -3,-4 z"
       id="path4230"
       inkscape:connector-curvature="0" />
    <path
       style="fill:url(#linearGradient4178);fill-opacity:1;stroke:none;filter:url(#filter8015)"
       d="m 406.57143,499.79812 -3,4 -16,0 0,1 0.002,0 c -5e-5,0.004 -0.002,0.008 -0.002,0.0117 l 0,35.98828 0,1 1,0 56,0 1,0 0,-1 0,-35.98828 0,-0.0117 0,-5 -39,0 z"
       id="rect4113"
       inkscape:connector-curvature="0" />
    <path
       style="fill:#7e878e;fill-opacity:1;fill-rule:evenodd;stroke:none;stroke-width:1px;stroke-linecap:butt;stroke-linejoin:miter;stroke-opacity:1;filter:url(#filter8031)"
       d="m 444.57143,493.79812 0,1 -29,0 -2,-5 3,4 z"
       id="path4222"
       inkscape:connector-curvature="0" />
    <path
       style="fill:#ffffff;fill-opacity:0.23529412;fill-rule:evenodd;stroke:none;stroke-width:1px;stroke-linecap:butt;stroke-linejoin:miter;stroke-opacity:1;filter:url(#filter8047)"
       d="m 387.57144,503.79812 0,1 16.99999,0 2,-5 -3,4 z"
       id="path4224"
       inkscape:connector-curvature="0" />
    <path
       style="fill:#444b51;fill-opacity:1;fill-rule:evenodd;stroke:none;stroke-width:1px;stroke-linecap:butt;stroke-linejoin:miter;stroke-opacity:1;filter:url(#filter8063)"
       d="m 388.57143,502.79812 0,1 15,0 3,-4 -5,3 z"
       id="path4228"
       inkscape:connector-curvature="0" />
    <path
       inkscape:connector-curvature="0"
       style="fill:#63697a;fill-opacity:1;stroke:none;filter:url(#filter8079)"
       d="m 387.57143,540.7981 0,1 1,0 56,0 1,0 0,-1 -1,0 -56,0 -1,0 z"
       id="path4151-2" />
    <path
       inkscape:connector-curvature="0"
       d="m 416.60386,508.33713 -14.31032,14.31032 2.76974,2.76974 2.30812,-2.30811 0,11.07896 7.38597,0 0,-5.53949 c 0,-1.02294 0.82354,-1.84649 1.84649,-1.84649 1.02296,0 1.84649,0.82355 1.84649,1.84649 l 0,5.53949 7.38597,0 0,-11.07896 2.30812,2.30811 2.76974,-2.76974 -14.31032,-14.31032 z m 5.53947,1.8465 0,1.38488 3.69299,3.69297 0,-5.07785 -3.69299,0 z"
       id="path2998-49-0-8-6"
       style="opacity:0.3;color:#000000;fill:#ffffff;fill-opacity:1;fill-rule:nonzero;stroke:none;stroke-width:1.70000005;marker:none;visibility:visible;display:inline;overflow:visible;enable-background:accumulate;filter:url(#filter8095)" />
    <path
       inkscape:connector-curvature="0"
       d="m 416.60386,507.72164 -14.31032,14.31032 2.76974,2.76975 2.30812,-2.30812 0,11.07895 7.38597,0 0,-5.53947 c 0,-1.02297 0.82354,-1.8465 1.84649,-1.8465 1.02296,0 1.84649,0.82353 1.84649,1.8465 l 0,5.53947 7.38597,0 0,-11.07895 2.30812,2.30812 2.76974,-2.76975 -14.31032,-14.31032 z m 5.53947,1.84649 0,1.38487 3.69299,3.69298 0,-5.07785 -3.69299,0 z"
       id="path2998-49-0-0"
       style="color:#000000;fill:#2a3338;fill-opacity:0.8509804;fill-rule:nonzero;stroke:none;stroke-width:5.10000038;marker:none;visibility:visible;display:inline;overflow:visible;enable-background:accumulate;filter:url(#filter8111)" />
  </g>
</svg>
